[gd_scene load_steps=3 format=2]

[ext_resource path="res://res/icons/Position3D.svg" type="Texture" id=1]
[ext_resource path="res://res/icons/Position2D.svg" type="Texture" id=2]

[node name="StatusBar" type="MarginContainer"]
margin_top = 528.0
margin_right = 760.0
margin_bottom = 544.0
custom_constants/margin_top = 4
__meta__ = {
"_edit_use_anchors_": false
}

[node name="ToolStatus" type="Label" parent="."]
margin_top = 5.0
margin_right = 175.0
margin_bottom = 19.0
size_flags_horizontal = 0
text = "Path Tool (16px, bricks.png)"

[node name="Coordinates" type="HBoxContainer" parent="."]
margin_left = 312.0
margin_top = 4.0
margin_right = 448.0
margin_bottom = 20.0
size_flags_horizontal = 4
custom_constants/separation = 8

[node name="MouseIcon" type="TextureRect" parent="Coordinates"]
margin_right = 16.0
margin_bottom = 16.0
texture = ExtResource( 2 )

[node name="MouseLabel" type="Label" parent="Coordinates"]
margin_left = 24.0
margin_top = 1.0
margin_right = 80.0
margin_bottom = 15.0
size_flags_horizontal = 4
text = "101, 248"

[node name="GridIcon" type="TextureRect" parent="Coordinates"]
margin_left = 88.0
margin_right = 104.0
margin_bottom = 16.0
texture = ExtResource( 1 )

[node name="GridLabel" type="Label" parent="Coordinates"]
margin_left = 112.0
margin_top = 1.0
margin_right = 136.0
margin_bottom = 15.0
size_flags_horizontal = 4
text = "1, 3"
