[gd_scene load_steps=2 format=2]

[ext_resource path="res://src/Tools/ImageSelector/TextureItem.cs" type="Script" id=1]

[node name="TextureItem" type="TextureRect"]
margin_right = 40.0
margin_bottom = 40.0
rect_min_size = Vector2( 64, 64 )
mouse_filter = 0
mouse_default_cursor_shape = 2
size_flags_horizontal = 0
size_flags_vertical = 0
expand = true
stretch_mode = 6
script = ExtResource( 1 )
__meta__ = {
"_edit_use_anchors_": false
}
